…
동일한 작업을 R을 활용하여 검증해 보면 동일한 결과가 얻어진 것이
확인된다.

```{r}
#| eval: false

crimes <- read_csv("data/Crime_Data_from_2020_to_Present.csv")

crimes %>%
  janitor::clean_names() %>%
  count(crm_cd, crm_cd_desc, sort = TRUE)
  
#> # A tibble: 141 × 3
#>    crm_cd crm_cd_desc                                                 n
#>     <dbl> <chr>                                                   <int>
#>  1    510 VEHICLE - STOLEN                                        95762
#>  2    624 BATTERY - SIMPLE ASSAULT                                78340
#>  3    330 BURGLARY FROM VEHICLE                                   63197
#>  4    740 VANDALISM - FELONY ($400 & OVER, ALL CHURCH VANDALISMS) 58921
#>  5    354 THEFT OF IDENTITY                                       58497
#>  6    310 BURGLARY                                                58189
#>  7    230 ASSAULT WITH DEADLY WEAPON, AGGRAVATED ASSAULT          53785
#>  8    440 THEFT PLAIN - PETTY ($950 & UNDER)                      53735
#>  9    626 INTIMATE PARTNER - SIMPLE ASSAULT                       49939
#> 10    420 THEFT FROM MOTOR VEHICLE - PETTY ($950 & UNDER)         39442
#> # ℹ 131 more rows
#> # ℹ Use `print(n = ...)` to see more rows  
```
…
